House Wife,HW01,100-101-111,common
House Wife,HW02,100-101-112,common
House Wife,HW03,100-101-113,VIP
House Wife,HW04,100-101-114,common
House Wife,HW05,100-101-115,VIP
House Wife,HW06,100-101-116,common
House Wife,HW07,100-101-117,common
House Wife,HW08,100-101-118,VVIP
House Wife,HW09,100-101-119,common
House Wife,HW10,100-101-120,common
House Wife,HW11,100-101-121,VIP
House Wife,HW12,100-101-122,common
NEU,NEU01,100-101-123,common
NEU,NEU02,100-101-124,common
NEU,NEU03,100-101-125,VIP
NEU,NEU04,100-101-126,common
NEU,NEU05,100-101-127,VVIP
NEU,NEU06,100-101-128,common
NEU,NEU07,100-101-129,VIP
NEU,NEU08,100-101-130,common
NEU,NEU09,100-101-131,VVIP
NEU,NEU10,100-101-132,common
NEU,NEU11,100-101-133,VIP
NEU,NEU12,100-101-134,common
NEU,NEU13,100-101-135,common
Home,Home1,100-101-136,common
Home,Home2,100-101-137,VIP
Home,Home3,100-101-138,common
Home,Home4,100-101-139,VVIP
Home,Home5,100-101-140,common
Home,Home6,100-101-141,VIP
Home,Home7,100-101-142,common
Home,Home8,100-101-143,common
Home,Home9,100-101-144,common
Home,Home10,100-101-145,VIP
Home,Home11,100-101-146,common
Home,Home12,100-101-147,VVIP
Home,Home13,100-101-148,common
Makeup Girls,MG01,100-101-149,VIP
Makeup Girls,MG02,100-101-150,common
Makeup Girls,MG03,100-101-151,common
Makeup Girls,MG04,100-101-152,common
Makeup Girls,MG05,100-101-153,VIP
Makeup Girls,MG06,100-101-154,common
Makeup Girls,MG07,100-101-155,VVIP
Makeup Girls,MG08,100-101-156,common
Makeup Girls,MG09,100-101-157,VIP
Makeup Girls,MG10,100-101-158,common
Makeup Girls,MG11,100-101-159,common
Makeup Girls,MG12,100-101-160,common